<?xml version="1.0" standalone="no"?>
<!DOCTYPE svg PUBLIC "-//W3C//DTD SVG 1.1//EN" "http://www.w3.org/Graphics/SVG/1.1/DTD/svg11.dtd" >
<svg xmlns="http://www.w3.org/2000/svg">
<metadata>Generated by IcoMoon</metadata>
<defs>
<font id="nsicons2" horiz-adv-x="1024">
<font-face units-per-em="1024" ascent="960" descent="-64" />
<missing-glyph horiz-adv-x="1024" />
<glyph unicode="&#x20;" horiz-adv-x="512" d="" />
<glyph unicode="&#xe909;" glyph-name="uniE900" d="M607.428 144.94h-78.216c-16.123 45.317-59.479 77.998-110.243 77.998-64.49 0-116.997-52.507-116.997-116.997s52.507-116.997 116.997-116.997c50.982 0 94.339 32.681 110.243 78.216h77.998c20.48 0 28.323 16.994 28.323 37.91v1.961c0.218 20.916-7.626 37.91-28.106 37.91zM418.969 36.875c-38.128 0-69.066 30.938-69.066 69.066s30.938 69.066 69.066 69.066c38.128 0 69.066-30.938 69.066-69.066s-30.938-69.066-69.066-69.066zM821.597 222.72c-51.2 2.832-96.082-27.452-114.601-71.462-1.525-3.704-2.397-6.1-6.536-6.1v0c-8.715 0-17.212-16.994-17.212-37.91v-1.961c0-20.916 8.497-37.91 17.212-37.91v0c4.14 0 4.793-2.397 6.318-6.1 17.648-42.267 59.261-72.116 107.847-72.116 66.015 0 119.394 55.122 116.78 121.573-1.961 59.697-50.111 108.5-109.808 111.986zM822.468 37.311c-44.010-4.575-80.831 32.245-76.037 76.037 3.486 32.027 29.195 57.736 61.004 61.004 44.010 4.575 80.831-32.245 76.037-76.037-3.268-31.809-28.977-57.518-61.004-61.004zM962.342 751.496v0h-657.103c-12.419 0-20.916-10.022-18.519-22.223l10.022-55.557 45.753-254.039c2.614-14.815 11.547-24.837 26.58-22.223l6.972 1.307c14.815 2.614 24.837 16.994 22.223 31.809l-40.96 227.677c-3.050 16.776 19.173 32.245 36.167 32.245h541.195c16.123 0 36.82-13.508 35.949-29.631l-32.027-266.458c-0.218-1.307-0.436-2.397-0.654-3.704-3.922-18.737-15.251-33.334-34.424-33.334h-567.122c-13.072 0-24.184 9.369-26.363 22.005l-90.199 501.978c-2.397 13.072-13.726 22.659-27.016 22.659l-152.946-0.218c-21.787 0-39.435-16.776-39.435-37.474v-1.961c0-20.698 17.648-37.474 39.435-37.474h103.925c13.29 0 24.62-9.586 27.016-22.659l91.506-508.296h0.218v-0.218h676.058c8.497 0 24.62 0 31.591 11.983 1.307 2.397 2.179 5.011 2.397 7.843l51.418 406.986c0.871 15.687-13.29 28.977-28.977 28.977h-32.681z" />
<glyph unicode="&#xe910;" glyph-name="1" d="M512 960c-268.366 0-485.966-217.6-485.966-485.966v-190.915c0-9.546 7.81-17.356 17.356-17.356h52.936c4.339-29.722 29.722-52.068 59.878-52.068h10.414c9.546-46.861 55.322-77.234 102.4-67.688 40.569 8.244 69.641 43.824 69.424 85.044v242.983c0 47.946-38.834 86.78-86.78 86.78-41.22 0-77.017-29.071-85.044-69.424h-10.414c-30.156 0-55.539-22.346-59.878-52.068h-35.58v34.712c0 122.793 50.115 240.163 138.631 324.99 32.976-24.298 77.668-24.949 111.729-2.169 59.444 39.485 129.519 60.095 200.895 59.010 71.376 1.085 141.451-19.525 200.895-59.010 34.061-22.78 78.536-22.129 111.729 1.953 88.515-84.827 138.631-202.197 138.631-324.773v-34.712h-35.58c-4.339 29.722-29.722 52.068-59.878 52.068h-10.414c-9.546 46.861-55.322 77.234-102.4 67.688-40.569-8.244-69.641-43.824-69.424-85.044v-242.983c0-47.946 38.834-86.78 86.78-86.78 41.22 0 77.017 29.071 85.044 69.424h10.414c30.156 0 55.539 22.346 59.878 52.068h34.712c-9.112-146.224-130.386-260.122-276.827-260.339h-90.034c-7.376 20.827-26.902 34.712-48.814 34.712h-69.424c-28.854 0-52.068-23.214-52.068-52.068s23.214-52.068 52.068-52.068h69.424c21.912 0 41.654 13.885 48.814 34.712h90.034c172.475 0.217 312.19 139.932 312.407 312.407v190.915c0 268.366-217.6 485.966-485.966 485.966zM199.593 474.034c0 28.854 23.214 52.068 52.068 52.068s52.068-23.214 52.068-52.068v-242.983c0-28.854-23.214-52.068-52.068-52.068s-52.068 23.214-52.068 52.068v242.983zM130.169 430.644c0 14.319 11.715 26.034 26.034 26.034h8.678v-208.271h-8.678c-14.319 0-26.034 11.715-26.034 26.034v156.203zM95.458 404.61v-104.136h-34.712v104.136h34.712zM732.42 825.708c-65.302 43.173-142.102 65.953-220.42 64.868-78.319 1.085-155.119-21.478-220.42-64.868-19.525-13.017-44.908-14.102-65.519-2.82 166.183 136.461 405.478 136.461 571.661 0v0c-20.61-11.498-45.776-10.414-65.302 2.82zM824.407 231.051c0-28.854-23.214-52.068-52.068-52.068s-52.068 23.214-52.068 52.068v242.983c0 28.854 23.214 52.068 52.068 52.068s52.068-23.214 52.068-52.068v-242.983zM893.831 274.441c0-14.319-11.715-26.034-26.034-26.034h-8.678v208.271h8.678c14.319 0 26.034-11.715 26.034-26.034v-156.203zM546.712-29.288h-69.424c-9.546 0-17.356 7.81-17.356 17.356s7.81 17.356 17.356 17.356h69.424c9.546 0 17.356-7.81 17.356-17.356s-7.81-17.356-17.356-17.356zM963.254 300.475h-34.712v104.136h34.712v-104.136z" />
<glyph unicode="&#xe911;" glyph-name="2" d="M875.193-63.782h-429.209c-77.563 0-140.528 59.261-140.528 132.249v458.186c0 72.987 62.965 132.249 140.528 132.249h429.209c77.563 0 140.528-59.261 140.528-132.249v-458.186c0-73.205-62.965-132.249-140.528-132.249zM551.871 242.546h-380.623c-89.981 0-163.186 69.937-163.186 155.561v406.332c0.218 85.624 73.423 155.561 163.186 155.561h380.623c89.981 0 163.186-69.937 163.186-155.561v-406.114c0-86.060-73.205-155.779-163.186-155.779zM171.248 883.091c-47.496 0-86.060-35.295-86.060-78.652v-406.114c0-43.357 38.563-78.652 86.060-78.652h380.623c47.496 0 86.060 35.295 86.060 78.652v406.114c0 43.357-38.563 78.652-86.060 78.652h-380.623z" />
<glyph unicode="&#xe912;" glyph-name="3" d="M512-64c-282.363 0-512 229.637-512 512s229.637 512 512 512 512-229.637 512-512-229.637-512-512-512zM512 908.146c-253.821 0-460.146-206.325-460.146-460.146s206.325-460.146 460.146-460.146 460.146 206.325 460.146 460.146-206.325 460.146-460.146 460.146zM512 89.382c-197.828 0-358.618 160.79-358.618 358.618s160.79 358.618 358.618 358.618 358.618-160.79 358.618-358.618-160.79-358.618-358.618-358.618zM512 754.764c-169.069 0-306.764-137.695-306.764-306.764s137.695-306.764 306.764-306.764 306.764 137.695 306.764 306.764-137.695 306.764-306.764 306.764zM587.384 459.329c0-41.633-33.75-75.384-75.384-75.384s-75.384 33.75-75.384 75.384c0 41.633 33.75 75.384 75.384 75.384s75.384-33.75 75.384-75.384zM569.954 471.094l-28.323 28.323 120.701 120.701c7.843 7.843 20.48 7.843 28.323 0v0c7.843-7.843 7.843-20.48 0-28.323l-120.701-120.701zM514.179 469.569l-28.323-28.323-120.701 120.701c-7.843 7.843-7.843 20.48 0 28.323v0c7.843 7.843 20.48 7.843 28.323 0l120.701-120.701z" />
</font></defs></svg>