<?xml version="1.0" standalone="no"?>
<!DOCTYPE svg PUBLIC "-//W3C//DTD SVG 1.1//EN" "http://www.w3.org/Graphics/SVG/1.1/DTD/svg11.dtd" >
<svg xmlns="http://www.w3.org/2000/svg">
<metadata>Generated by IcoMoon</metadata>
<defs>
<font id="star" horiz-adv-x="1024">
<font-face units-per-em="1024" ascent="960" descent="-64" />
<missing-glyph horiz-adv-x="1024" />
<glyph unicode="&#x20;" horiz-adv-x="512" d="" />
<glyph unicode="&#xe907;" glyph-name="start-o" d="M507.438 895.037c-1.573-2.202-3.461-6.449-4.090-9.28-0.786-2.831-2.045-7.236-2.989-9.91-2.674-7.078-14.314-41.841-15.887-47.189-0.786-2.517-2.517-8.179-3.775-12.584-2.831-9.438-5.505-17.145-8.337-23.909-1.101-2.674-2.045-5.977-2.045-7.236s-1.101-4.404-2.359-6.764c-1.258-2.517-2.359-5.663-2.359-6.921s-1.888-7.236-4.090-13.37c-2.202-5.977-4.562-13.056-5.348-15.73-0.629-2.517-2.045-6.764-2.989-9.438-4.562-12.426-14.629-43.099-15.887-47.975-0.629-2.989-2.202-8.022-3.146-11.011-1.101-2.989-2.831-8.022-3.932-11.011s-2.831-8.022-3.775-11.011c-1.101-2.989-2.517-7.55-3.303-10.224-0.786-2.517-2.045-6.764-2.989-9.438-3.775-10.224-9.91-28.628-11.168-33.032-0.629-2.517-2.045-6.764-2.989-9.438-0.944-2.517-4.404-12.898-7.708-22.808l-5.82-18.089-180.104-0.944c-99.097-0.472-182.621-1.101-185.61-1.258l-5.505-0.315 8.651-7.865c4.719-4.247 12.584-10.382 17.303-13.527 8.179-5.505 36.178-25.639 55.054-39.796 35.234-26.269 56.469-41.841 59.93-43.886 2.202-1.416 6.449-4.404 9.438-6.764 4.404-3.461 37.594-27.841 67.48-49.548 8.809-6.449 35.077-25.797 46.874-34.605 4.876-3.775 13.685-9.91 19.347-13.842 14.943-10.224 14.943-10.224 11.64-20.92-1.573-4.876-3.775-11.168-5.033-13.999-1.101-2.674-2.045-5.663-2.045-6.606 0-1.888-8.022-27.841-11.797-37.908-1.101-2.989-3.303-9.752-4.719-14.943-1.573-5.191-3.775-11.797-4.876-14.629-1.258-2.831-2.202-6.135-2.202-7.393s-0.944-4.562-2.202-7.393c-1.258-2.831-3.303-9.123-4.719-13.842s-5.663-18.246-9.438-29.886c-3.775-11.64-9.123-28.628-11.955-37.751s-5.977-19.033-7.078-22.022c-2.359-6.292-13.527-41.526-21.235-66.065-4.876-15.572-6.135-19.19-11.011-33.032-0.944-2.989-2.359-8.022-3.146-11.011-0.629-2.989-1.888-7.236-2.674-9.438-3.303-8.179-5.505-16.044-4.562-16.831 0.472-0.472 3.303 0.786 6.292 2.831 10.382 7.236 37.908 27.212 38.695 28.156 0.472 0.629 6.921 4.719 14.471 9.28 7.55 4.404 14.157 8.966 14.786 9.752 1.101 1.888 37.122 28.785 66.065 49.391 10.853 7.865 21.235 15.415 23.123 17.145 1.888 1.573 5.977 4.404 8.966 6.449 3.146 1.888 11.64 8.022 19.19 13.527 15.572 11.483 34.92 25.325 44.043 31.617 3.461 2.359 8.494 5.977 11.168 8.179 5.82 4.562 29.257 21.55 42.47 30.673 5.033 3.618 10.382 6.449 11.955 6.449 2.517 0 5.977-2.202 13.527-8.337 0.944-0.629 10.853-7.865 22.022-16.044 37.908-27.37 71.255-51.751 92.333-67.323 11.483-8.651 24.538-17.932 28.785-20.606 4.404-2.831 8.966-6.135 10.224-7.393 2.989-2.989 20.92-16.359 31.459-23.437 4.404-2.989 14.943-10.382 23.437-16.516 15.73-11.483 31.459-22.493 36.021-25.167 4.404-2.674 33.976-24.066 36.807-26.583 7.236-6.449 7.393-1.573 0.944 17.145-2.202 6.135-5.191 15.258-6.606 20.449-1.573 5.191-3.775 11.955-4.876 14.943-5.033 13.999-6.135 17.775-11.797 36.965-1.258 4.562-2.674 8.809-7.078 21.235-1.101 2.989-3.303 9.752-4.719 14.943-1.573 5.191-3.618 11.955-4.719 14.943s-4.247 12.898-7.078 22.022c-2.831 9.123-5.82 18.246-6.606 20.449-0.944 2.202-2.202 6.449-2.989 9.438-0.944 4.876-5.977 20.291-11.011 33.819-0.944 2.674-2.359 7.236-2.989 10.224-0.786 2.989-2.989 10.539-5.191 16.516-2.045 6.135-5.033 15.258-6.606 20.449s-3.618 11.955-4.719 14.943c-1.101 2.989-2.831 8.022-3.775 11.011-1.101 2.989-2.517 7.708-3.303 10.224-0.786 2.674-2.202 7.236-3.146 10.224-3.461 10.382-4.876 14.943-6.921 22.336-1.888 6.921-1.73 7.708 1.258 10.382 3.932 3.618 51.908 39.324 57.571 43.099 2.202 1.258 6.449 4.719 9.438 7.393s5.977 4.876 6.606 4.876c0.629 0 12.426 8.337 25.954 18.561 13.685 10.224 27.37 20.291 30.358 22.336s6.449 4.876 7.708 5.977c1.258 1.258 5.191 3.932 8.651 6.292 5.663 3.461 36.335 25.954 41.369 30.201 1.101 0.944 5.348 3.932 9.438 6.606 4.247 2.674 8.809 6.292 10.382 7.865s5.663 4.562 8.966 6.764c3.303 2.045 15.73 11.011 27.684 19.977 12.112 8.966 23.594 17.46 25.797 18.718 2.202 1.416 6.449 4.876 9.438 7.55s6.292 4.876 7.236 4.876c1.101 0 2.989 1.73 4.247 3.618l2.359 3.775-116.557 0.944c-64.177 0.629-146.915 1.101-183.88 1.101h-67.323l-2.517 3.932c-1.416 2.045-3.146 6.135-3.775 8.966-1.258 4.876-2.359 8.494-7.078 21.707-1.101 2.989-6.449 19.347-11.797 36.178s-10.382 32.246-11.168 34.291c-3.146 7.865-12.426 36.65-12.426 38.223 0 0.944-0.944 3.932-2.045 6.606-2.517 5.977-4.876 12.426-9.28 26.269-5.191 16.044-21.55 66.379-23.28 71.57-7.393 21.235-12.584 37.437-12.584 39.167 0 1.258-0.944 4.247-2.202 6.764-2.989 5.977-5.033 12.426-11.955 35.864-1.101 4.247-2.359 7.865-6.292 18.876-0.944 2.831-1.258 2.831-3.775-1.258zM512.786 798.142c0-1.573 1.101-3.775 2.359-4.876s2.359-4.247 2.359-7.078c0-2.831 1.101-5.977 2.359-7.078s2.359-4.247 2.359-7.078c0-2.831 1.101-5.977 2.359-7.078s2.359-3.146 2.359-4.719c0-1.573 1.101-3.618 2.359-4.719s2.359-4.247 2.359-7.078c0-2.831 1.101-5.977 2.359-7.078s2.359-4.247 2.359-7.078c0-2.831 1.101-5.977 2.359-7.078s2.359-4.247 2.359-7.078c0-2.831 1.101-5.977 2.359-7.078s2.359-4.247 2.359-7.078c0-2.831 1.101-5.977 2.359-7.078s2.359-4.247 2.359-7.078c0-2.831 1.101-5.977 2.359-7.078s2.359-4.247 2.359-7.078c0-2.831 1.101-5.977 2.359-7.078s2.359-3.146 2.359-4.719c0-1.573 1.101-3.618 2.359-4.719s2.359-4.247 2.359-7.078c0-2.831 1.101-5.977 2.359-7.078s2.359-4.247 2.359-7.078c0-2.831 1.101-5.977 2.359-7.078s2.359-4.247 2.359-7.078c0-2.831 1.101-5.977 2.359-7.078s2.359-4.247 2.359-7.078c0-2.831 1.101-5.977 2.359-7.078s2.359-4.247 2.359-7.078c0-2.831 1.101-5.977 2.359-7.078s2.359-4.247 2.359-7.078c0-2.831 1.101-5.977 2.359-7.078s2.359-3.146 2.359-4.719c0-1.573 1.101-3.618 2.359-4.719s2.359-4.247 2.359-7.078c0-2.831 1.101-5.977 2.359-7.078s2.359-4.247 2.359-7.078c0-2.831 1.101-5.977 2.359-7.078s2.359-4.247 2.359-7.078c0-2.831 0.944-5.977 2.202-7.078 1.258-0.944 2.517-3.303 2.831-5.191l0.472-3.461 141.881-0.786c78.019-0.472 142.196-1.258 142.668-1.73 1.101-1.101-9.91-12.426-12.269-12.426-0.944 0-5.191-3.303-9.28-7.078-4.247-3.932-8.337-7.078-9.28-7.078s-5.191-3.146-9.28-7.078c-4.090-3.932-8.494-7.078-9.595-7.078-1.258 0-5.348-3.146-9.123-7.078s-8.022-7.078-9.28-7.078c-1.101 0-5.663-3.146-9.752-7.078s-8.494-7.078-9.595-7.078c-1.258 0-5.348-3.146-9.123-7.078s-8.022-7.078-9.28-7.078c-1.101 0-5.663-3.146-9.752-7.078s-8.494-7.078-9.595-7.078c-1.258 0-5.348-3.146-9.123-7.078s-8.022-7.078-9.438-7.078c-1.416 0-5.663-3.146-9.438-7.078s-8.022-7.078-9.438-7.078c-1.416 0-5.663-3.146-9.438-7.078s-8.022-7.078-9.438-7.078c-1.416 0-5.663-3.146-9.438-7.078s-8.022-7.078-9.438-7.078c-1.416 0-5.663-3.146-9.438-7.078s-8.022-7.078-9.28-7.078c-1.258 0-5.033-2.674-8.337-5.82-5.191-5.033-5.977-6.764-5.977-13.213 0-4.562 0.944-8.022 2.359-9.28 1.258-1.101 2.359-4.247 2.359-7.078s1.101-5.977 2.359-7.078c1.258-1.101 2.359-4.247 2.359-7.078s1.101-5.977 2.359-7.078c1.258-1.101 2.359-4.247 2.359-7.078s1.101-5.977 2.359-7.078c1.258-1.101 2.359-4.247 2.359-7.078s1.101-5.977 2.359-7.078c1.258-1.101 2.359-3.146 2.359-4.719s1.101-3.618 2.359-4.719c1.258-1.101 2.359-4.247 2.359-7.078s1.101-5.977 2.359-7.078c1.258-1.101 2.359-4.247 2.359-7.078s1.101-5.977 2.359-7.078c1.258-1.101 2.359-4.247 2.359-7.078s1.101-5.977 2.359-7.078c1.258-1.101 2.359-4.247 2.359-7.078s1.101-5.977 2.359-7.078c1.258-1.101 2.359-4.247 2.359-7.078s1.101-5.977 2.359-7.078c1.258-1.101 2.359-4.247 2.359-7.078s1.101-5.977 2.359-7.078c1.258-1.101 2.359-4.247 2.359-7.078s1.101-5.977 2.359-7.078c1.258-1.101 2.359-4.247 2.359-7.078s1.101-5.977 2.359-7.078c1.258-1.101 2.359-4.247 2.359-7.078s1.101-5.977 2.359-7.078c1.258-1.101 2.359-4.247 2.359-7.078s1.101-5.977 2.359-7.078c1.258-1.101 2.359-3.146 2.359-4.719s1.101-3.618 2.359-4.719c1.258-1.101 2.359-4.247 2.359-7.078s1.101-5.977 2.359-7.078c1.258-1.101 2.359-4.247 2.359-6.921s1.101-6.292 2.359-7.865c1.258-1.73 2.359-5.033 2.359-7.393s0.786-4.876 1.573-5.348c1.888-1.101 2.202-11.797 0.472-11.797-0.786 0-2.989 1.416-5.191 3.146s-4.719 3.146-5.82 3.146c-0.944 0-5.191 3.146-9.438 7.078-4.090 3.775-8.651 7.078-9.91 7.078-1.416 0-5.663 3.146-9.438 7.078s-8.022 7.078-9.438 7.078c-1.416 0-5.663 3.146-9.438 7.078s-8.022 7.078-9.438 7.078c-1.416 0-4.562 2.045-7.078 4.719-2.517 2.517-5.663 4.719-7.078 4.719s-5.663 3.146-9.438 7.078c-3.775 3.932-8.022 7.078-9.438 7.078s-5.663 3.146-9.438 7.078c-3.775 3.932-8.022 7.078-9.438 7.078s-5.663 3.146-9.438 7.078c-3.775 3.932-8.022 7.078-9.438 7.078s-4.562 2.202-7.078 4.719c-2.517 2.674-5.663 4.719-7.078 4.719s-5.663 3.146-9.438 7.078c-3.775 3.932-8.022 7.078-9.438 7.078s-5.663 3.146-9.438 7.078c-3.775 3.932-8.022 7.078-9.438 7.078s-5.663 3.146-9.438 7.078c-3.775 3.932-8.022 7.078-9.438 7.078s-5.663 3.146-9.438 7.078c-3.775 3.932-8.179 7.078-9.595 7.078s-3.461 1.101-4.562 2.359c-2.674 3.303-20.92 3.303-23.594 0-1.101-1.258-3.146-2.359-4.562-2.359s-5.82-3.146-9.595-7.078c-3.775-3.932-8.022-7.078-9.438-7.078s-5.663-3.146-9.438-7.078c-3.775-3.932-8.022-7.078-9.438-7.078s-5.663-3.146-9.438-7.078c-3.775-3.932-8.022-7.078-9.438-7.078s-4.562-2.202-7.078-4.719c-2.517-2.674-5.663-4.719-7.078-4.719s-5.663-3.146-9.438-7.078c-3.775-3.932-8.022-7.078-9.438-7.078s-5.663-3.146-9.438-7.078c-3.775-3.932-8.022-7.078-9.438-7.078s-5.663-3.146-9.438-7.078c-3.775-3.932-8.022-7.078-9.28-7.078-1.101 0-5.663-3.146-9.752-7.078s-8.337-7.078-9.438-7.078c-0.944 0-4.247-2.202-7.236-4.719-2.831-2.674-5.977-4.719-6.921-4.719s-5.348-3.146-9.752-7.078c-4.562-3.932-8.809-7.078-9.438-7.078-0.786 0-5.033-3.146-9.438-7.078-4.562-3.932-8.651-7.078-9.28-7.078-1.416 0-22.336-14.314-23.437-16.202-1.573-2.359-4.562 0.315-4.562 4.247 0 1.888 1.101 4.876 2.359 6.606 1.258 1.573 2.359 4.876 2.359 7.078s1.101 5.348 2.359 7.078c1.258 1.573 2.359 5.191 2.359 7.865s1.101 5.82 2.359 6.921c1.258 1.101 2.359 4.247 2.359 7.078s1.101 5.977 2.359 7.078c1.258 1.101 2.359 4.247 2.359 7.078s1.101 5.977 2.359 7.078c1.258 1.101 2.359 4.247 2.359 7.078s1.101 5.977 2.359 7.078c1.258 1.101 2.359 4.247 2.359 7.078s1.101 5.977 2.359 7.078c1.258 1.101 2.359 4.247 2.359 7.078s1.101 5.977 2.359 7.078c1.258 1.101 2.359 4.247 2.359 7.078s1.101 5.977 2.359 7.078c1.258 1.101 2.359 4.247 2.359 7.078s1.101 5.977 2.359 7.078c1.258 1.101 2.359 4.247 2.359 7.078s1.101 5.977 2.359 7.078c1.258 1.101 2.359 4.247 2.359 7.078s1.101 5.977 2.359 7.078c1.258 1.101 2.359 4.247 2.359 7.078s1.101 5.977 2.359 7.078c1.258 1.101 2.359 4.247 2.359 7.078s1.101 5.977 2.359 7.078c1.258 1.101 2.359 4.247 2.359 7.078s1.101 5.977 2.359 7.078c1.258 1.101 2.359 4.247 2.359 7.078s1.101 5.977 2.359 7.078c1.258 1.101 2.359 4.247 2.359 7.078s1.101 5.977 2.359 7.078c1.258 1.101 2.359 4.247 2.359 7.078s1.101 5.977 2.359 7.078c1.258 1.101 2.359 4.247 2.359 7.078s1.101 5.977 2.359 7.078c1.73 1.416 2.359 5.191 2.359 13.685 0 10.067-0.472 12.426-3.618 15.572-1.888 2.045-4.562 3.775-5.82 3.775-1.416 0-5.663 3.146-9.438 7.078s-8.022 7.078-9.438 7.078c-1.416 0-4.562 2.045-7.078 4.719-2.517 2.517-5.663 4.719-7.078 4.719s-4.562 2.045-7.078 4.719c-2.517 2.517-5.663 4.719-7.078 4.719s-5.663 3.146-9.438 7.078c-3.775 3.932-8.022 7.078-9.438 7.078s-4.562 2.045-7.078 4.719c-2.517 2.674-5.663 4.719-7.078 4.719s-4.562 2.202-7.078 4.719c-2.517 2.674-5.663 4.719-7.078 4.719s-5.663 3.146-9.438 7.078c-3.775 3.932-8.022 7.078-9.438 7.078s-4.562 2.045-7.078 4.719c-2.517 2.674-5.663 4.719-7.078 4.719s-5.663 3.146-9.438 7.078c-3.775 3.932-8.022 7.078-9.438 7.078s-4.562 2.045-7.078 4.719c-2.517 2.674-5.663 4.719-7.078 4.719s-4.562 2.202-7.078 4.719c-2.517 2.674-5.663 4.719-7.078 4.719s-5.663 3.146-9.438 7.078c-3.775 3.932-8.022 7.078-9.438 7.078s-4.562 2.202-7.078 4.719c-2.517 2.674-5.348 4.719-6.449 4.719-0.944 0-4.247 2.045-7.078 4.719-2.989 2.517-6.135 4.719-7.078 4.719-2.359 0-8.651 7.078-7.393 8.337 0.472 0.629 66.536 1.101 146.6 1.101h145.499l3.618 3.461c2.989 2.831 3.618 5.033 3.618 13.213 0 6.606 0.786 10.224 2.359 11.64 1.258 1.101 2.359 4.247 2.359 7.078s1.101 5.977 2.359 7.078c1.258 1.101 2.359 4.247 2.359 7.078s1.101 5.977 2.359 7.078c1.258 1.101 2.359 4.247 2.359 7.078s1.101 5.977 2.359 7.078c1.258 1.101 2.359 4.247 2.359 7.078s1.101 5.977 2.359 7.078c1.258 1.101 2.359 4.247 2.359 7.078s1.101 5.977 2.359 7.078c1.258 1.101 2.359 4.247 2.359 7.078s1.101 5.977 2.359 7.078c1.258 1.101 2.359 4.247 2.359 7.078s1.101 5.977 2.359 7.078c1.258 1.101 2.359 4.247 2.359 7.078s1.101 5.977 2.359 7.078c1.416 1.258 2.359 4.719 2.359 9.438s0.944 8.179 2.359 9.438c1.258 1.101 2.359 4.247 2.359 7.078s1.101 5.977 2.359 7.078c1.258 1.101 2.359 4.247 2.359 7.078s1.101 5.977 2.359 7.078c1.258 1.101 2.359 4.247 2.359 7.078s1.101 5.977 2.359 7.078c1.258 1.101 2.359 3.146 2.359 4.719s1.101 3.618 2.359 4.719c1.258 1.101 2.359 4.247 2.359 7.078s1.101 5.977 2.359 7.078c1.258 1.101 2.359 4.247 2.359 7.078s1.101 5.977 2.359 7.078c1.258 1.101 2.359 3.146 2.359 4.719s1.101 3.618 2.359 4.719c1.258 1.101 2.359 3.932 2.359 6.135 0 2.359 1.101 5.663 2.359 7.393 1.258 1.573 2.359 5.191 2.359 7.865s1.101 5.82 2.359 6.921c1.258 1.101 2.359 3.146 2.359 4.719 0 1.416 0.472 3.146 0.944 3.618 1.73 1.573 3.775-0.472 3.775-3.461z" />
<glyph unicode="&#xe908;" glyph-name="star" horiz-adv-x="1075" d="M532.262 946.44c-0.468-2.494-1.559-6.39-2.494-9.040-0.935-2.494-2.182-6.702-2.961-9.352-1.403-5.143-4.208-13.56-6.702-19.482-0.779-2.182-2.026-6.39-2.65-9.352-0.779-2.961-2.182-7.949-3.117-10.91-1.091-2.961-2.805-7.949-3.896-10.91s-2.805-7.949-3.741-10.91c-1.091-2.961-2.65-8.261-3.429-11.689-0.935-3.429-2.182-6.858-3.117-7.637-0.779-0.935-1.403-3.429-1.403-5.611s-1.091-5.455-2.338-7.17c-1.247-1.559-2.338-4.832-2.338-7.014s-1.091-5.299-2.338-7.014c-1.247-1.559-2.338-4.52-2.338-6.39s-0.935-5.767-2.182-8.572c-3.429-8.416-5.923-15.742-7.17-21.82-0.623-3.273-1.87-6.702-2.65-7.793-0.935-1.091-2.026-4.052-2.494-6.702-0.312-2.494-1.559-7.17-2.65-10.131s-2.805-7.949-3.896-10.91c-1.091-2.961-2.805-7.949-3.896-10.91-0.935-2.961-2.494-7.949-3.117-10.91s-2.182-7.949-3.117-10.91c-1.091-2.961-2.805-7.949-3.896-10.91s-2.805-7.949-3.741-10.91c-1.091-2.961-2.65-8.261-3.429-11.689-0.935-3.429-2.182-6.858-3.117-7.637-0.779-0.935-1.403-3.429-1.403-5.611s-1.091-5.455-2.338-7.17c-1.247-1.559-2.338-4.832-2.338-7.014s-1.091-5.299-2.338-7.014c-1.247-1.559-2.338-4.52-2.338-6.39s-0.935-5.767-2.182-8.572c-3.429-8.416-5.923-15.742-7.17-21.82-0.623-3.273-1.87-6.702-2.65-7.793-0.935-1.091-2.026-4.052-2.494-6.702-0.779-4.832-2.65-10.287-7.481-22.6l-2.805-7.014-201.371-0.312c-110.661-0.312-201.839-0.779-202.306-1.403-1.091-1.091 3.585-4.676 16.521-13.404 5.455-3.429 9.819-7.014 9.819-7.637 0-0.779 0.779-1.403 1.559-1.403 0.935 0 9.975-6.234 19.95-13.716s20.885-15.274 24.158-17.3c3.117-1.87 5.767-4.208 5.767-4.988s0.779-1.403 1.559-1.403c0.935 0 9.975-6.234 19.95-13.716s20.885-15.274 24.158-17.3c3.117-1.87 5.767-4.208 5.767-4.988s0.779-1.403 1.559-1.403c0.935 0 9.975-6.234 19.95-13.716s20.885-15.274 24.158-17.3c3.117-1.87 5.767-4.208 5.767-4.988s0.779-1.403 1.559-1.403c0.935 0 9.975-6.234 19.95-13.716s20.885-15.274 24.158-17.3c3.117-1.87 5.767-4.208 5.767-4.988s0.779-1.403 1.559-1.403c0.935 0 2.494-0.779 3.585-1.559 5.143-4.364 35.38-26.34 40.524-29.458 3.117-1.87 5.767-4.208 5.767-4.988s0.779-1.403 1.714-1.403c0.935 0 2.65-0.935 3.741-1.87 1.247-1.091 9.975-7.637 19.327-14.495 18.236-13.248 20.262-16.521 14.963-23.535-1.247-1.559-2.338-4.832-2.338-7.014s-1.091-5.299-2.338-7.014c-1.247-1.559-2.338-4.52-2.338-6.39s-0.935-5.767-2.182-8.572c-3.429-8.416-5.923-15.742-7.17-21.82-0.623-3.273-1.87-6.702-2.65-7.793-0.935-1.091-2.026-4.052-2.494-6.702-0.312-2.494-1.559-7.17-2.65-10.131s-2.805-7.949-3.896-10.91c-1.091-2.961-2.805-7.949-3.896-10.91-0.935-2.961-2.494-7.949-3.117-10.91s-2.182-7.949-3.117-10.91c-1.091-2.961-2.805-7.949-3.896-10.91s-2.805-7.949-3.741-10.91c-1.091-2.961-2.65-8.261-3.429-11.689-0.935-3.429-2.182-6.858-3.117-7.793-0.779-0.779-1.403-2.805-1.403-4.676 0-1.714-1.091-5.143-2.338-7.637-1.247-2.338-2.338-5.923-2.338-7.793s-1.091-4.832-2.338-6.546c-1.247-1.559-2.338-4.52-2.338-6.39s-0.935-5.767-2.182-8.572c-3.429-8.416-5.923-15.742-7.17-21.82-0.623-3.273-1.87-6.702-2.65-7.793-0.935-1.091-2.026-4.052-2.494-6.702-0.312-2.494-1.559-7.17-2.65-10.131s-2.805-7.949-3.896-10.91c-1.091-2.961-2.805-7.949-3.896-10.91-0.935-2.961-2.494-7.949-3.117-10.91s-2.182-7.949-3.117-10.91c-1.091-2.961-2.805-7.949-3.896-10.91s-2.805-7.949-3.741-10.91c-1.091-2.961-2.65-8.261-3.429-11.689-0.935-3.429-2.182-6.858-3.117-7.793-0.779-0.779-1.403-2.805-1.403-4.676 0-1.714-1.091-5.143-2.338-7.637-1.247-2.338-2.338-5.923-2.338-7.793s-0.935-4.676-2.182-6.39c-2.805-4.208-4.676-16.365-2.494-16.365 0.935 0 9.975 6.39 20.262 14.027 10.287 7.793 19.327 14.027 20.262 14.027 0.779 0 1.559 0.623 1.559 1.403s2.65 3.117 5.923 4.988c3.117 2.026 14.027 9.819 24.002 17.3s19.015 13.716 19.95 13.716c0.779 0 1.559 0.623 1.559 1.403s3.585 3.585 7.793 6.234c4.364 2.65 9.040 6.234 10.443 7.949 1.559 1.714 3.273 3.117 4.052 3.117 0.623 0 6.858 4.208 13.56 9.352s13.092 9.352 13.872 9.352c0.935 0 1.714 0.623 1.714 1.403s2.65 3.117 5.923 4.988c3.117 2.026 14.027 9.819 24.002 17.3s18.547 13.716 19.015 13.716c0.468 0 3.117 2.182 5.923 4.676 2.805 2.65 5.767 4.676 6.858 4.676 0.935 0 3.741 2.026 6.234 4.676 2.494 2.494 5.143 4.676 5.767 4.676 0.779 0 6.858 4.208 13.56 9.352s12.625 9.352 13.092 9.352c0.468 0 3.117 2.182 5.923 4.676 2.805 2.65 5.767 4.676 6.858 4.676 0.935 0 3.741 2.026 6.234 4.676 2.494 2.494 5.143 4.676 5.767 4.676 0.779 0 6.858 4.208 13.56 9.352s12.625 9.352 13.092 9.352c0.468 0 3.117 2.182 5.923 4.676s5.767 4.676 6.702 4.676c0.779 0 4.676 2.805 8.416 6.234 3.896 3.429 8.105 6.234 9.507 6.234s5.611-2.805 9.507-6.234c3.741-3.429 7.637-6.234 8.416-6.234 0.935 0 3.896-2.026 6.702-4.676 2.805-2.494 5.455-4.676 5.923-4.676s9.040-6.234 19.327-14.027c10.287-7.637 19.171-14.027 19.794-14.027 0.779 0 3.585-2.182 6.39-4.676 2.805-2.65 5.455-4.676 5.923-4.676s6.39-4.208 13.092-9.352c6.702-5.143 12.781-9.352 13.56-9.352 0.623 0 3.273-2.182 5.767-4.676 2.494-2.65 5.299-4.676 6.234-4.676 1.091 0 4.052-2.026 6.858-4.676 2.805-2.494 5.455-4.676 5.923-4.676s6.39-4.208 13.092-9.352c6.702-5.143 12.936-9.352 13.56-9.352 0.779 0 2.494-1.403 4.052-3.117 1.403-1.714 6.079-5.299 10.443-7.949 4.208-2.65 7.793-5.455 7.793-6.234s0.779-1.403 1.714-1.403c0.779 0 7.17-4.208 13.872-9.352s12.936-9.352 13.56-9.352c0.779 0 2.494-1.403 4.052-3.117 1.403-1.714 6.079-5.299 10.443-7.949 4.208-2.65 7.793-5.455 7.793-6.234s0.779-1.403 1.559-1.403c0.935 0 9.975-6.234 19.95-13.716s20.885-15.274 24.158-17.3c3.117-1.87 5.767-4.208 5.767-4.988s0.779-1.403 1.559-1.403c0.935 0 9.975-6.234 20.262-14.027 10.287-7.637 19.327-14.027 20.262-14.027 2.182 0 0.312 12.157-2.494 16.365-1.247 1.714-2.182 4.52-2.182 6.39s-1.091 5.455-2.338 7.793c-1.247 2.494-2.338 5.923-2.338 7.637 0 1.87-0.623 3.896-1.403 4.676-0.935 0.935-2.182 4.364-3.117 7.793-0.779 3.429-2.338 8.728-3.429 11.689-0.935 2.961-2.65 7.949-3.741 10.91s-2.805 7.949-3.896 10.91c-0.935 2.961-2.494 7.949-3.117 10.91s-2.182 7.949-3.117 10.91c-1.091 2.961-2.805 7.949-3.896 10.91s-2.805 7.949-3.896 10.91c-1.091 2.961-2.338 7.637-2.65 10.131-0.468 2.65-1.559 5.611-2.494 6.702-0.779 1.091-2.026 4.52-2.65 7.793-1.247 6.079-3.741 13.404-7.17 21.82-1.247 2.805-2.182 6.702-2.182 8.572s-1.091 4.832-2.338 6.39c-1.247 1.714-2.338 4.676-2.338 6.546s-1.091 5.455-2.338 7.793c-1.247 2.494-2.338 5.923-2.338 7.637 0 1.87-0.623 3.896-1.403 4.676-0.935 0.935-2.182 4.364-3.117 7.793-0.779 3.429-2.338 8.728-3.429 11.689-0.935 2.961-2.65 7.949-3.741 10.91s-2.805 7.949-3.896 10.91c-0.935 2.961-2.494 7.949-3.117 10.91s-2.182 7.949-3.117 10.91c-1.091 2.961-2.805 7.949-3.896 10.91s-2.805 7.949-3.896 10.91c-1.091 2.961-2.338 7.637-2.65 10.131-0.468 2.65-1.559 5.611-2.494 6.702-0.779 1.091-2.026 4.52-2.65 7.793-1.247 6.079-3.741 13.404-7.17 21.82-1.247 2.805-2.182 6.702-2.182 8.572s-1.091 4.832-2.338 6.39c-1.247 1.714-2.338 4.832-2.338 7.014s-1.091 5.455-2.338 7.014c-5.299 7.014-3.273 10.287 14.963 23.535 9.352 6.858 18.080 13.404 19.327 14.495 1.091 0.935 2.805 1.87 3.741 1.87s1.714 0.623 1.714 1.403c0 0.779 2.65 3.117 5.923 4.988 4.988 3.117 35.224 25.093 40.368 29.458 1.091 0.779 2.65 1.559 3.585 1.559 0.779 0 1.559 0.623 1.559 1.403s2.65 3.117 5.923 4.988c3.117 2.026 14.027 9.819 24.002 17.3s19.015 13.716 19.95 13.716c0.779 0 1.559 0.623 1.559 1.403s2.65 3.117 5.923 4.988c3.117 2.026 14.027 9.819 24.002 17.3s19.015 13.716 19.95 13.716c0.779 0 1.559 0.623 1.559 1.403s2.65 3.117 5.923 4.988c3.117 2.026 14.027 9.819 24.002 17.3s19.015 13.716 19.95 13.716c0.779 0 1.559 0.623 1.559 1.403s2.65 3.117 5.923 4.988c3.117 2.026 14.027 9.819 24.002 17.3s19.015 13.716 19.95 13.716c0.779 0 1.559 0.623 1.559 1.403 0 0.623 4.364 4.208 9.819 7.637 12.936 8.728 17.612 12.313 16.521 13.404-0.468 0.623-91.646 1.091-202.306 1.403l-201.371 0.312-2.805 7.014c-4.832 12.313-6.702 17.768-7.481 22.6-0.468 2.65-1.559 5.611-2.494 6.702-0.779 1.091-2.026 4.52-2.65 7.793-1.247 6.079-3.741 13.404-7.17 21.82-1.247 2.805-2.182 6.702-2.182 8.572s-1.091 4.832-2.338 6.39c-1.247 1.714-2.338 4.832-2.338 7.014s-1.091 5.455-2.338 7.014c-1.247 1.714-2.338 4.988-2.338 7.17s-0.623 4.676-1.403 5.611c-0.935 0.779-2.182 4.208-3.117 7.637-0.779 3.429-2.338 8.728-3.429 11.689-0.935 2.961-2.65 7.949-3.741 10.91s-2.805 7.949-3.896 10.91c-0.935 2.961-2.494 7.949-3.117 10.91s-2.182 7.949-3.117 10.91c-1.091 2.961-2.805 7.949-3.896 10.91s-2.805 7.949-3.896 10.91c-1.091 2.961-2.338 7.637-2.65 10.131-0.468 2.65-1.559 5.611-2.494 6.702-0.779 1.091-2.026 4.52-2.65 7.793-1.247 6.079-3.741 13.404-7.17 21.82-1.247 2.805-2.182 6.702-2.182 8.572s-1.091 4.832-2.338 6.39c-1.247 1.714-2.338 4.832-2.338 7.014s-1.091 5.455-2.338 7.014c-1.247 1.714-2.338 4.988-2.338 7.17s-0.623 4.676-1.403 5.611c-0.935 0.779-2.182 4.208-3.117 7.637-0.779 3.429-2.338 8.728-3.429 11.689-0.935 2.961-2.65 7.949-3.741 10.91s-2.805 7.949-3.896 10.91c-0.935 2.961-2.494 7.949-3.117 10.91-1.247 5.299-3.585 12.469-6.702 20.262-0.779 2.182-2.026 6.079-2.65 8.572-0.779 2.65-2.026 6.858-2.961 9.352-0.935 2.65-2.026 6.546-2.494 9.040-0.623 2.805-1.87 4.208-3.896 4.208s-3.273-1.403-3.896-4.208z" />
</font></defs></svg>